\relax 
\@input{strona_tytulowa.aux}
\@input{__wstep.aux}
\@input{1_przeglad.aux}
\@input{2_metoda.aux}
\@input{3_implementacja.aux}
\@input{4_rezultaty.aux}
\@input{_podsumowanie.aux}
\bibstyle{alpha}
\bibdata{main}
\@input{dodatek_A.aux}
\@input{dodatek_B.aux}
