\relax 
\citation{Google:2018}
\@writefile{toc}{\contentsline {chapter}{\numberline {1}{Przegl\IeC {\k a}d istniej\IeC {\k a}cych rozwi\IeC {\k a}za\IeC {\'n} do jednoczesnej pracy na dokumentami tekstowymi}}{7}\protected@file@percent }
\@writefile{lof}{\addvspace {10\p@ }}
\@writefile{lot}{\addvspace {10\p@ }}
\newlabel{chapter:przeglad}{{1}{7}}
\@writefile{toc}{\contentsline {section}{\numberline {1.1}{Istniej\IeC {\k a}ce obecnie na rynku plikacje RIA do wsp\IeC {\'o}lnej pracy nad dokumentami}}{7}\protected@file@percent }
\@writefile{toc}{\contentsline {subsection}{\numberline {1.1.1}{Google Docs}}{7}\protected@file@percent }
\@writefile{lof}{\contentsline {figure}{\numberline {1.1}{\ignorespaces Google Docs(\IeC {\'z}r\IeC {\'o}d\IeC {\l }o w\IeC {\l }asne).}}{7}\protected@file@percent }
\newlabel{fig:schemat}{{1.1}{7}}
\citation{Microsoft:2018}
\@writefile{toc}{\contentsline {subsection}{\numberline {1.1.2}{Microsoft Word Online}}{8}\protected@file@percent }
\@writefile{lof}{\contentsline {figure}{\numberline {1.2}{\ignorespaces Microsoft Word Online (\IeC {\'z}r\IeC {\'o}d\IeC {\l }o w\IeC {\l }asne).}}{8}\protected@file@percent }
\newlabel{fig:schemat}{{1.2}{8}}
\@writefile{toc}{\contentsline {subsection}{\numberline {1.1.3}{Dropbox Paper}}{8}\protected@file@percent }
\citation{Pinola:2016}
\@writefile{lof}{\contentsline {figure}{\numberline {1.3}{\ignorespaces Dropbox Paper (\IeC {\'z}r\IeC {\'o}d\IeC {\l }o w\IeC {\l }asne).}}{9}\protected@file@percent }
\newlabel{fig:schemat}{{1.3}{9}}
\@writefile{toc}{\contentsline {subsection}{\numberline {1.1.4}{Etherpad Lite}}{9}\protected@file@percent }
\@writefile{lof}{\contentsline {figure}{\numberline {1.4}{\ignorespaces Etherpad Lite (\IeC {\'z}r\IeC {\'o}d\IeC {\l }o https://www.turnkeylinux.org/screenshots/etherpad-embedded-chat).}}{9}\protected@file@percent }
\newlabel{fig:schemat}{{1.4}{9}}
\citation{Gamo:1995}
\citation{Weis:1995,Mantiuk13_GDOT,Tomaszewska07}
\citation{url_link}
\@writefile{toc}{\contentsline {section}{\numberline {1.2}\leavevmode {\color  {BrickRed}Klasyfikacja metod literaturowych}}{10}\protected@file@percent }
\@writefile{toc}{\contentsline {subsection}{\numberline {1.2.1}\leavevmode {\color  {BrickRed}Opis metody literaturowej 1}}{10}\protected@file@percent }
\@writefile{toc}{\contentsline {subsection}{\numberline {1.2.2}\leavevmode {\color  {BrickRed}Cytowania}}{10}\protected@file@percent }
\@writefile{toc}{\contentsline {subsection}{\numberline {1.2.3}\leavevmode {\color  {BrickRed}Jak zamieszcza\IeC {\'c} rysunki?}}{10}\protected@file@percent }
\@writefile{toc}{\contentsline {subsection}{\numberline {1.2.4}\leavevmode {\color  {BrickRed}Jak formatowa\IeC {\'c} tekst?}}{11}\protected@file@percent }
\@writefile{toc}{\contentsline {subsection}{\numberline {1.2.5}\leavevmode {\color  {BrickRed}Przyk\IeC {\l }ad zamieszczania wzor\IeC {\'o}w}}{11}\protected@file@percent }
\newlabel{equation:1}{{1.1}{11}}
\newlabel{equation:2}{{1.2.5}{11}}
\@writefile{toc}{\contentsline {subsection}{\numberline {1.2.6}\leavevmode {\color  {BrickRed}Podsumowania}}{11}\protected@file@percent }
\@setckpt{1_przeglad}{
\setcounter{page}{12}
\setcounter{equation}{1}
\setcounter{enumi}{0}
\setcounter{enumii}{0}
\setcounter{enumiii}{0}
\setcounter{enumiv}{0}
\setcounter{footnote}{0}
\setcounter{mpfootnote}{0}
\setcounter{part}{0}
\setcounter{chapter}{1}
\setcounter{section}{2}
\setcounter{subsection}{6}
\setcounter{subsubsection}{0}
\setcounter{paragraph}{0}
\setcounter{subparagraph}{0}
\setcounter{figure}{4}
\setcounter{table}{0}
\setcounter{NAT@ctr}{0}
}
