\relax 
\citation{Gamo:1995}
\@writefile{toc}{\contentsline {chapter}{\numberline {2}{Narz\IeC {\k e}dzie, technologie i metody u\IeC {\.z}yte na potrzeby projektu zwi\IeC {\k a}zanego z tematem pracy in\IeC {\.z}ynierskiej}}{12}\protected@file@percent }
\@writefile{lof}{\addvspace {10\p@ }}
\@writefile{lot}{\addvspace {10\p@ }}
\newlabel{chapter:metoda}{{2}{12}}
\@writefile{toc}{\contentsline {section}{\numberline {2.1}{Framework GWT}}{12}\protected@file@percent }
\@writefile{toc}{\contentsline {subsection}{\numberline {2.1.1}{Zasada dzia\IeC {\l }ania}}{12}\protected@file@percent }
\citation{GWTSuperDevMode:2018}
\@writefile{toc}{\contentsline {subsection}{\numberline {2.1.2}{Tryb debug}}{13}\protected@file@percent }
\@writefile{toc}{\contentsline {subsection}{\numberline {2.1.3}{Zastosowania}}{13}\protected@file@percent }
\@writefile{toc}{\contentsline {subsection}{\numberline {2.1.4}{Przyk\IeC {\l }ady u\IeC {\.z}ycia}}{13}\protected@file@percent }
\@writefile{toc}{\contentsline {section}{\numberline {2.2}{J\IeC {\k e}zyk programowania}}{13}\protected@file@percent }
\@writefile{toc}{\contentsline {subsection}{\numberline {2.2.1}{Java 8}}{13}\protected@file@percent }
\citation{PostgreSQL:2018}
\@writefile{toc}{\contentsline {section}{\numberline {2.3}{Przegl\IeC {\k a}d RDBMS}}{14}\protected@file@percent }
\@writefile{toc}{\contentsline {subsection}{\numberline {2.3.1}{Komunikacja z baz\IeC {\k a} danych - JDBC}}{14}\protected@file@percent }
\@setckpt{2_metoda}{
\setcounter{page}{15}
\setcounter{equation}{0}
\setcounter{enumi}{0}
\setcounter{enumii}{0}
\setcounter{enumiii}{0}
\setcounter{enumiv}{0}
\setcounter{footnote}{0}
\setcounter{mpfootnote}{0}
\setcounter{part}{0}
\setcounter{chapter}{2}
\setcounter{section}{3}
\setcounter{subsection}{1}
\setcounter{subsubsection}{0}
\setcounter{paragraph}{0}
\setcounter{subparagraph}{0}
\setcounter{figure}{0}
\setcounter{table}{0}
\setcounter{NAT@ctr}{0}
}
