\relax 
\@writefile{toc}{\contentsline {chapter}{\numberline {3}\leavevmode {\color  {BrickRed}Projekt systemu do jednoczesnej pracy grupowej}}{15}\protected@file@percent }
\@writefile{lof}{\addvspace {10\p@ }}
\@writefile{lot}{\addvspace {10\p@ }}
\newlabel{chapter:implementacja}{{3}{15}}
\@writefile{toc}{\contentsline {section}{\numberline {3.1}{Wymagania funkcjonalne}}{15}\protected@file@percent }
\@writefile{toc}{\contentsline {subsection}{\numberline {3.1.1}Aplikacja klienta}{15}\protected@file@percent }
\@writefile{toc}{\contentsline {subsection}{\numberline {3.1.2}Aplikacja serwera}{16}\protected@file@percent }
\@writefile{toc}{\contentsline {subsection}{\numberline {3.1.3}Format danych wej\IeC {\'s}ciowych oraz wyj\IeC {\'s}ciowych}{16}\protected@file@percent }
\@writefile{toc}{\contentsline {section}{\numberline {3.2}{Diagramy przypadk\IeC {\'o}w u\IeC {\.z}ycia}}{16}\protected@file@percent }
\@writefile{toc}{\contentsline {section}{\numberline {3.3}{Diagramy sekwencji}}{16}\protected@file@percent }
\@setckpt{3_implementacja}{
\setcounter{page}{17}
\setcounter{equation}{0}
\setcounter{enumi}{3}
\setcounter{enumii}{0}
\setcounter{enumiii}{0}
\setcounter{enumiv}{0}
\setcounter{footnote}{0}
\setcounter{mpfootnote}{0}
\setcounter{part}{0}
\setcounter{chapter}{3}
\setcounter{section}{3}
\setcounter{subsection}{0}
\setcounter{subsubsection}{0}
\setcounter{paragraph}{0}
\setcounter{subparagraph}{0}
\setcounter{figure}{0}
\setcounter{table}{0}
\setcounter{NAT@ctr}{0}
}
