\relax 
\@writefile{toc}{\contentsline {chapter}{\numberline {4}Rezultaty i wnioski}{17}\protected@file@percent }
\@writefile{lof}{\addvspace {10\p@ }}
\@writefile{lot}{\addvspace {10\p@ }}
\newlabel{chapter:rezultaty}{{4}{17}}
\@writefile{toc}{\contentsline {section}{\numberline {4.1}Opis procedury testowej}{17}\protected@file@percent }
\@writefile{toc}{\contentsline {section}{\numberline {4.2}Prezentacja rezultat\IeC {\'o}w}{17}\protected@file@percent }
\@writefile{lot}{\contentsline {table}{\numberline {4.1}{\ignorespaces Tabela }}{17}\protected@file@percent }
\newlabel{table:przyklad}{{4.1}{17}}
\@writefile{toc}{\contentsline {section}{\numberline {4.3}Wnioski}{18}\protected@file@percent }
\@setckpt{4_rezultaty}{
\setcounter{page}{19}
\setcounter{equation}{0}
\setcounter{enumi}{3}
\setcounter{enumii}{0}
\setcounter{enumiii}{0}
\setcounter{enumiv}{0}
\setcounter{footnote}{0}
\setcounter{mpfootnote}{0}
\setcounter{part}{0}
\setcounter{chapter}{4}
\setcounter{section}{3}
\setcounter{subsection}{0}
\setcounter{subsubsection}{0}
\setcounter{paragraph}{0}
\setcounter{subparagraph}{0}
\setcounter{figure}{0}
\setcounter{table}{1}
\setcounter{NAT@ctr}{0}
}
