\relax 
\newlabel{chapter:wstep}{{}{4}}
\citation{RIA:2018}
\citation{Java:2018}
\citation{DBMS:2018}
\citation{Framework:2018}
\@writefile{toc}{\contentsline {subsection}{\numberline {0.0.1}{Zawarto\IeC {\'s}\IeC {\'c} merytoryczna}}{5}\protected@file@percent }
\@writefile{toc}{\contentsline {section}{\numberline {0.1}{S\IeC {\l }ownik poj\IeC {\k e}\IeC {\'c}}}{5}\protected@file@percent }
\@writefile{toc}{\contentsline {subsection}{\numberline {0.1.1}{Aplikacje typu RIA}}{5}\protected@file@percent }
\@writefile{toc}{\contentsline {subsection}{\numberline {0.1.2}{Java}}{5}\protected@file@percent }
\@writefile{toc}{\contentsline {subsection}{\numberline {0.1.3}{System zarz\IeC {\k a}dzania baz\IeC {\k a} danych, baza danych}}{5}\protected@file@percent }
\@writefile{toc}{\contentsline {subsection}{\numberline {0.1.4}{Framework albo platforma programistyczna}}{5}\protected@file@percent }
\citation{GWTWiki:2018}
\citation{Javascript:2018}
\citation{XMLHttpRequest:2018}
\citation{Chmura:2018}
\citation{SaS:2018}
\citation{Debug:2018}
\@writefile{toc}{\contentsline {subsection}{\numberline {0.1.5}{Google Web Toolkit}}{6}\protected@file@percent }
\@writefile{toc}{\contentsline {subsection}{\numberline {0.1.6}{JavaScript, a w\IeC {\l }a\IeC {\'s}ciwie ECMAScript}}{6}\protected@file@percent }
\@writefile{toc}{\contentsline {subsection}{\numberline {0.1.7}{XHR}}{6}\protected@file@percent }
\@writefile{toc}{\contentsline {subsection}{\numberline {0.1.8}{Chmura obliczeniowa}}{6}\protected@file@percent }
\@writefile{toc}{\contentsline {subsection}{\numberline {0.1.9}{SaaS, z ang. oprogramowanie jako us\IeC {\l }uga}}{6}\protected@file@percent }
\@writefile{toc}{\contentsline {subsection}{\numberline {0.1.10}{Debuggowanie i tryb debug}}{6}\protected@file@percent }
\@setckpt{__wstep}{
\setcounter{page}{7}
\setcounter{equation}{0}
\setcounter{enumi}{0}
\setcounter{enumii}{0}
\setcounter{enumiii}{0}
\setcounter{enumiv}{0}
\setcounter{footnote}{0}
\setcounter{mpfootnote}{0}
\setcounter{part}{0}
\setcounter{chapter}{0}
\setcounter{section}{1}
\setcounter{subsection}{10}
\setcounter{subsubsection}{0}
\setcounter{paragraph}{0}
\setcounter{subparagraph}{0}
\setcounter{figure}{0}
\setcounter{table}{0}
\setcounter{NAT@ctr}{0}
}
