\relax 
\@input{strona_tytulowa.aux}
\@input{__wstep.aux}
\@input{1_przeglad.aux}
\@input{2_metoda.aux}
\@input{3_implementacja.aux}
\@input{4_rezultaty.aux}
\@input{_podsumowanie.aux}
\bibstyle{alpha}
\bibdata{main}
\bibcite{Tacy13_GIA}{{THET13}{}{{}}{{}}}
\bibcite{Helios:2017}{{Hel17}{}{{}}{{}}}
\bibcite{Microsoft:2018}{{Mic18}{}{{}}{{}}}
\bibcite{Google:2018}{{Goo18}{}{{}}{{}}}
\bibcite{Pinola:2016}{{Pinola16}{}{{}}{{}}}
\bibcite{Java:2018}{{Jav}{}{{}}{{}}}
\bibcite{OracleJava:2018}{{IrJ}{}{{}}{{}}}
\bibcite{Framework:2018}{{Fr}{}{{}}{{}}}
\bibcite{GWTGettingStarted:2018}{{GWTS}{}{{}}{{}}}
\bibcite{GWTOverview:2018}{{GWTO}{}{{}}{{}}}
\bibcite{GWTWiki:2018}{{GWTW}{}{{}}{{}}}
\bibcite{Javascript:2018}{{JS}{}{{}}{{}}}
\bibcite{Chmura:2018}{{Cl}{}{{}}{{}}}
\bibcite{SaS:2018}{{SaS}{}{{}}{{}}}
\bibcite{Debug:2018}{{Dbg}{}{{}}{{}}}
\bibcite{XMLHttpRequest:2018}{{XHR}{}{{}}{{}}}
\bibcite{RIA:2018}{{RIA}{}{{}}{{}}}
\bibcite{DBMS:2018}{{DBMS}{}{{}}{{}}}
\bibcite{PostgreSQL:2018}{{PSQL}{}{{}}{{}}}
\bibcite{GWTSuperDevMode:2018}{{GWTDevMode}{}{{}}{{}}}
\@input{dodatek_A.aux}
\@input{dodatek_B.aux}
\providecommand\NAT@force@numbers{}\NAT@force@numbers
